-9.98;9.98;16878.32362
-9.98;9.291724138;15077.32991
-9.98;8.603448276;13370.70233
-9.98;7.915172414;11758.44088
-9.98;7.226896552;10240.54557
-9.98;6.53862069;8817.016383
-9.98;5.850344828;7487.853332
-9.98;5.162068966;6253.056414
-9.98;4.473793103;5112.625627
-9.98;3.785517241;4066.560974
-9.98;3.097241379;3114.862453
-9.98;2.408965517;2257.530065
-9.98;1.720689655;1494.563809
-9.98;1.032413793;825.9636863
-9.98;0.344137931;251.7296956
-9.98;-0.344137931;-228.1381625
-9.98;-1.032413793;-613.6398882
-9.98;-1.720689655;-904.7754814
-9.98;-2.408965517;-1101.544942
-9.98;-3.097241379;-1203.94827
-9.98;-3.785517241;-1211.985466
-9.98;-4.473793103;-1125.656529
-9.98;-5.162068965;-944.9614599
-9.98;-5.850344828;-669.9002576
-9.98;-6.53862069;-300.4729232
-9.98;-7.226896552;163.3205437
-9.98;-7.915172414;721.4801431
-9.98;-8.603448276;1374.005875
-9.98;-9.291724138;2120.897739
-9.98;-9.98;2962.155736
-9.291724138;9.98;14630.55639
-9.291724138;9.291724138;13069.40964
-9.291724138;8.603448276;11590.06183
-9.291724138;7.915172414;10192.51296
-9.291724138;7.226896552;8876.763042
-9.291724138;6.53862069;7642.812061
-9.291724138;5.850344828;6490.660023
-9.291724138;5.162068966;5420.306928
-9.291724138;4.473793103;4431.752773
-9.291724138;3.785517241;3524.997562
-9.291724138;3.097241379;2700.041294
-9.291724138;2.408965517;1956.883968
-9.291724138;1.720689655;1295.525585
-9.291724138;1.032413793;715.9661443
-9.291724138;0.344137931;218.2056458
-9.291724138;-0.344137931;-197.7559102
-9.291724138;-1.032413793;-531.9185238
-9.291724138;-1.720689655;-784.2821949
-9.291724138;-2.408965517;-954.8469236
-9.291724138;-3.097241379;-1043.61271
-9.291724138;-3.785517241;-1050.579554
-9.291724138;-4.473793103;-975.7474551
-9.291724138;-5.162068965;-819.1164141
-9.291724138;-5.850344828;-580.6864302
-9.291724138;-6.53862069;-260.4575042
-9.291724138;-7.226896552;141.5703643
-9.291724138;-7.915172414;625.3971751
-9.291724138;-8.603448276;1191.022928
-9.291724138;-9.291724138;1838.447624
-9.291724138;-9.98;2567.671262
-8.603448276;9.98;12543.34395
-8.603448276;9.291724138;11204.91224
-8.603448276;8.603448276;9936.609937
-8.603448276;7.915172414;8738.437041
-8.603448276;7.226896552;7610.393554
-8.603448276;6.53862069;6552.479476
-8.603448276;5.850344828;5564.694807
-8.603448276;5.162068966;4647.039547
-8.603448276;4.473793103;3799.513694
-8.603448276;3.785517241;3022.117252
-8.603448276;3.097241379;2314.850218
-8.603448276;2.408965517;1677.712593
-8.603448276;1.720689655;1110.704377
-8.603448276;1.032413793;613.8255695
-8.603448276;0.344137931;187.076171
-8.603448276;-0.344137931;-169.5438188
-8.603448276;-1.032413793;-456.0343997
-8.603448276;-1.720689655;-672.3955718
-8.603448276;-2.408965517;-818.6273351
-8.603448276;-3.097241379;-894.7296896
-8.603448276;-3.785517241;-900.7026352
-8.603448276;-4.473793103;-836.5461721
-8.603448276;-5.162068965;-702.2603002
-8.603448276;-5.850344828;-497.8450191
-8.603448276;-6.53862069;-223.3003294
-8.603448276;-7.226896552;121.3737691
-8.603448276;-7.915172414;536.1772764
-8.603448276;-8.603448276;1021.110192
-8.603448276;-9.291724138;1576.172517
-8.603448276;-9.98;2201.364251
-7.915172414;9.98;10616.68632
-7.915172414;9.291724138;9483.837721
-7.915172414;8.603448276;8410.346651
-7.915172414;7.915172414;7396.213112
-7.915172414;7.226896552;6441.437105
-7.915172414;6.53862069;5546.018629
-7.915172414;5.850344828;4709.957685
-7.915172414;5.162068966;3933.254273
-7.915172414;4.473793103;3215.908391
-7.915172414;3.785517241;2557.920042
-7.915172414;3.097241379;1959.289225
-7.915172414;2.408965517;1420.015939
-7.915172414;1.720689655;940.1001846
-7.915172414;1.032413793;519.541962
-7.915172414;0.344137931;158.3412711
-7.915172414;-0.344137931;-143.5018882
-7.915172414;-1.032413793;-385.9875159
-7.915172414;-1.720689655;-569.115612
-7.915172414;-2.408965517;-692.8861764
-7.915172414;-3.097241379;-757.2992093
-7.915172414;-3.785517241;-762.3547105
-7.915172414;-4.473793103;-708.0526801
-7.915172414;-5.162068965;-594.3931181
-7.915172414;-5.850344828;-421.3760241
-7.915172414;-6.53862069;-189.0013988
-7.915172414;-7.226896552;102.7307582
-7.915172414;-7.915172414;453.8204467
-7.915172414;-8.603448276;864.2676669
-7.915172414;-9.291724138;1334.072419
-7.915172414;-9.98;1863.234702
-7.226896552;9.98;8850.583494
-7.226896552;9.291724138;7906.186078
-7.226896552;8.603448276;7011.271972
-7.226896552;7.915172414;6165.841176
-7.226896552;7.226896552;5369.893692
-7.226896552;6.53862069;4623.429519
-7.226896552;5.850344828;3926.448656
-7.226896552;5.162068966;3278.951105
-7.226896552;4.473793103;2680.936863
-7.226896552;3.785517241;2132.405933
-7.226896552;3.097241379;1633.358314
-7.226896552;2.408965517;1183.794006
-7.226896552;1.720689655;783.7130083
-7.226896552;1.032413793;433.1153219
-7.226896552;0.344137931;132.0009462
-7.226896552;-0.344137931;-119.6301185
-7.226896552;-1.032413793;-321.7778724
-7.226896552;-1.720689655;-474.4423155
-7.226896552;-2.408965517;-577.6234477
-7.226896552;-3.097241379;-631.321269
-7.226896552;-3.785517241;-635.5357795
-7.226896552;-4.473793103;-590.2669791
-7.226896552;-5.162068965;-495.5148678
-7.226896552;-5.850344828;-351.2794455
-7.226896552;-6.53862069;-157.5607124
-7.226896552;-7.226896552;85.64133147
-7.226896552;-7.915172414;378.3266862
-7.226896552;-8.603448276;720.4953518
-7.226896552;-9.291724138;1112.147328
-7.226896552;-9.98;1553.282616
-6.53862069;9.98;7245.035468
-6.53862069;9.291724138;6471.957311
-6.53862069;8.603448276;5739.3859
-6.53862069;7.915172414;5047.321235
-6.53862069;7.226896552;4395.763317
-6.53862069;6.53862069;3784.712146
-6.53862069;5.850344828;3214.167721
-6.53862069;5.162068966;2684.130043
-6.53862069;4.473793103;2194.59911
-6.53862069;3.785517241;1745.574925
-6.53862069;3.097241379;1337.057486
-6.53862069;2.408965517;969.0467938
-6.53862069;1.720689655;641.5428481
-6.53862069;1.032413793;354.545649
-6.53862069;0.344137931;108.0551964
-6.53862069;-0.344137931;-97.92850972
-6.53862069;-1.032413793;-263.4054693
-6.53862069;-1.720689655;-388.3756823
-6.53862069;-2.408965517;-472.8391488
-6.53862069;-3.097241379;-516.7958687
-6.53862069;-3.785517241;-520.2458422
-6.53862069;-4.473793103;-483.189069
-6.53862069;-5.162068965;-405.6255494
-6.53862069;-5.850344828;-287.555283
-6.53862069;-6.53862069;-128.9782703
-6.53862069;-7.226896552;70.10548903
-6.53862069;-7.915172414;309.6959949
-6.53862069;-8.603448276;589.7932472
-6.53862069;-9.291724138;910.3972461
-6.53862069;-9.98;1271.507992
-5.850344828;9.98;5800.042245
-5.850344828;9.291724138;5181.151421
-5.850344828;8.603448276;4594.688435
-5.850344828;7.915172414;4040.653288
-5.850344828;7.226896552;3519.04598
-5.850344828;6.53862069;3029.86651
-5.850344828;5.850344828;2573.114879
-5.850344828;5.162068966;2148.791087
-5.850344828;4.473793103;1756.895132
-5.850344828;3.785517241;1397.427017
-5.850344828;3.097241379;1070.386741
-5.850344828;2.408965517;775.7743031
-5.850344828;1.720689655;513.5897039
-5.850344828;1.032413793;283.8329434
-5.850344828;0.344137931;86.50402146
-5.850344828;-0.344137931;-78.3970618
-5.850344828;-1.032413793;-210.8703064
-5.850344828;-1.720689655;-310.9157124
-5.850344828;-2.408965517;-378.5332798
-5.850344828;-3.097241379;-413.7230085
-5.850344828;-3.785517241;-416.4848986
-5.850344828;-4.473793103;-386.81895
-5.850344828;-5.162068965;-324.7251628
-5.850344828;-5.850344828;-230.2035368
-5.850344828;-6.53862069;-103.2540723
-5.850344828;-7.226896552;56.12323083
-5.850344828;-7.915172414;247.9283726
-5.850344828;-8.603448276;472.161353
-5.850344828;-9.291724138;728.8221721
-5.850344828;-9.98;1017.91083
-5.162068966;9.98;4515.603824
-5.162068966;9.291724138;4033.768407
-5.162068966;8.603448276;3577.179578
-5.162068966;7.915172414;3145.837335
-5.162068966;7.226896552;2739.74168
-5.162068966;6.53862069;2358.892612
-5.162068966;5.850344828;2003.290131
-5.162068966;5.162068966;1672.934237
-5.162068966;4.473793103;1367.82493
-5.162068966;3.785517241;1087.962211
-5.162068966;3.097241379;833.3460786
-5.162068966;2.408965517;603.9765336
-5.162068966;1.720689655;399.8535757
-5.162068966;1.032413793;220.9772051
-5.162068966;0.344137931;67.34742156
-5.162068966;-0.344137931;-61.03577476
-5.162068966;-1.032413793;-164.1723839
-5.162068966;-1.720689655;-242.0624059
-5.162068966;-2.408965517;-294.7058407
-5.162068966;-3.097241379;-322.1026883
-5.162068966;-3.785517241;-324.2529487
-5.162068966;-4.473793103;-301.156622
-5.162068966;-5.162068965;-252.8137081
-5.162068966;-5.850344828;-179.2242069
-5.162068966;-6.53862069;-80.38811859
-5.162068966;-7.226896552;43.69455688
-5.162068966;-7.915172414;193.0238195
-5.162068966;-8.603448276;367.5996693
-5.162068966;-9.291724138;567.4221063
-5.162068966;-9.98;792.4911305
-4.473793103;9.98;3391.720204
-4.473793103;9.291724138;3029.808269
-4.473793103;8.603448276;2686.859326
-4.473793103;7.915172414;2362.873375
-4.473793103;7.226896552;2057.850417
-4.473793103;6.53862069;1771.79045
-4.473793103;5.850344828;1504.693476
-4.473793103;5.162068966;1256.559493
-4.473793103;4.473793103;1027.388503
-4.473793103;3.785517241;817.1805047
-4.473793103;3.097241379;625.9354988
-4.473793103;2.408965517;453.653485
-4.473793103;1.720689655;300.3344634
-4.473793103;1.032413793;165.978434
-4.473793103;0.344137931;50.58539662
-4.473793103;-0.344137931;-45.84464858
-4.473793103;-1.032413793;-123.3117016
-4.473793103;-1.720689655;-181.8157626
-4.473793103;-2.408965517;-221.3568314
-4.473793103;-3.097241379;-241.934908
-4.473793103;-3.785517241;-243.5499925
-4.473793103;-4.473793103;-226.2020849
-4.473793103;-5.162068965;-189.8911851
-4.473793103;-5.850344828;-134.6172931
-4.473793103;-6.53862069;-60.38040905
-4.473793103;-7.226896552;32.81946715
-4.473793103;-7.915172414;144.9823355
-4.473793103;-8.603448276;276.108196
-4.473793103;-9.291724138;426.1970486
-4.473793103;-9.98;595.2488934
-3.785517241;9.98;2428.391389
-3.785517241;9.291724138;2169.271009
-3.785517241;8.603448276;1923.727683
-3.785517241;7.915172414;1691.761411
-3.785517241;7.226896552;1473.372192
-3.785517241;6.53862069;1268.560026
-3.785517241;5.850344828;1077.324914
-3.785517241;5.162068966;899.6668561
-3.785517241;4.473793103;735.585851
-3.785517241;3.785517241;585.0818998
-3.785517241;3.097241379;448.1550021
-3.785517241;2.408965517;324.8051579
-3.785517241;1.720689655;215.0323673
-3.785517241;1.032413793;118.8366302
-3.785517241;0.344137931;36.21794669
-3.785517241;-0.344137931;-32.8236833
-3.785517241;-1.032413793;-88.28825976
-3.785517241;-1.720689655;-130.1757827
-3.785517241;-2.408965517;-158.486252
-3.785517241;-3.097241379;-173.2196679
-3.785517241;-3.785517241;-174.3760301
-3.785517241;-4.473793103;-161.9553389
-3.785517241;-5.162068965;-135.9575941
-3.785517241;-5.850344828;-96.38279567
-3.785517241;-6.53862069;-43.23094376
-3.785517241;-7.226896552;23.49796169
-3.785517241;-7.915172414;103.8039207
-3.785517241;-8.603448276;197.6869332
-3.785517241;-9.291724138;305.1469993
-3.785517241;-9.98;426.1841189
-3.097241379;9.98;1625.617376
-3.097241379;9.291724138;1452.156626
-3.097241379;8.603448276;1287.784647
-3.097241379;7.915172414;1132.50144
-3.097241379;7.226896552;986.3070044
-3.097241379;6.53862069;849.2013399
-3.097241379;5.850344828;721.1844469
-3.097241379;5.162068966;602.2563252
-3.097241379;4.473793103;492.4169747
-3.097241379;3.785517241;391.6663957
-3.097241379;3.097241379;300.0045882
-3.097241379;2.408965517;217.431552
-3.097241379;1.720689655;143.9472872
-3.097241379;1.032413793;79.55179379
-3.097241379;0.344137931;24.24507175
-3.097241379;-0.344137931;-21.97287891
-3.097241379;-1.032413793;-59.10205818
-3.097241379;-1.720689655;-87.14246608
-3.097241379;-2.408965517;-106.0941026
-3.097241379;-3.097241379;-115.9569677
-3.097241379;-3.785517241;-116.7310615
-3.097241379;-4.473793103;-108.4163839
-3.097241379;-5.162068965;-91.01293488
-3.097241379;-5.850344828;-64.52071446
-3.097241379;-6.53862069;-28.93972268
-3.097241379;-7.226896552;15.73004047
-3.097241379;-7.915172414;69.488575
-3.097241379;-8.603448276;132.3358809
-3.097241379;-9.291724138;204.2719582
-3.097241379;-9.98;285.2968069
-2.408965517;9.98;983.3981658
-2.408965517;9.291724138;878.4651195
-2.408965517;8.603448276;779.0302189
-2.408965517;7.915172414;685.0934639
-2.408965517;7.226896552;596.6548545
-2.408965517;6.53862069;513.7143908
-2.408965517;5.850344828;436.2720728
-2.408965517;5.162068966;364.3279004
-2.408965517;4.473793103;297.8818736
-2.408965517;3.785517241;236.9339925
-2.408965517;3.097241379;181.484257
-2.408965517;2.408965517;131.5326673
-2.408965517;1.720689655;87.07922312
-2.408965517;1.032413793;48.12392464
-2.408965517;0.344137931;14.6667718
-2.408965517;-0.344137931;-13.29223539
-2.408965517;-1.032413793;-35.75309693
-2.408965517;-1.720689655;-52.71581282
-2.408965517;-2.408965517;-64.18038306
-2.408965517;-3.097241379;-70.14680765
-2.408965517;-3.785517241;-70.61508659
-2.408965517;-4.473793103;-65.58521988
-2.408965517;-5.162068965;-55.05720752
-2.408965517;-5.850344828;-39.03104949
-2.408965517;-6.53862069;-17.50674582
-2.408965517;-7.226896552;9.515703494
-2.408965517;-7.915172414;42.03629846
-2.408965517;-8.603448276;80.05503907
-2.408965517;-9.291724138;123.5719253
-2.408965517;-9.98;172.5869572
-1.720689655;9.98;501.733758
-1.720689655;9.291724138;448.1964895
-1.720689655;8.603448276;397.4643974
-1.720689655;7.915172414;349.5374816
-1.720689655;7.226896552;304.4157421
-1.720689655;6.53862069;262.099179
-1.720689655;5.850344828;222.5877922
-1.720689655;5.162068966;185.8815818
-1.720689655;4.473793103;151.9805477
-1.720689655;3.785517241;120.88469
-1.720689655;3.097241379;92.5940087
-1.720689655;2.408965517;67.1085037
-1.720689655;1.720689655;44.42817506
-1.720689655;1.032413793;24.55302277
-1.720689655;0.344137931;7.483046837
-1.720689655;-0.344137931;-6.781752749
-1.720689655;-1.032413793;-18.24137598
-1.720689655;-1.720689655;-26.89582287
-1.720689655;-2.408965517;-32.7450934
-1.720689655;-3.097241379;-35.78918757
-1.720689655;-3.785517241;-36.0281054
-1.720689655;-4.473793103;-33.46184688
-1.720689655;-5.162068965;-28.090412
-1.720689655;-5.850344828;-19.91380076
-1.720689655;-6.53862069;-8.932013174
-1.720689655;-7.226896552;4.854950762
-1.720689655;-7.915172414;21.44709105
-1.720689655;-8.603448276;40.84440769
-1.720689655;-9.291724138;63.04690068
-1.720689655;-9.98;88.05457002
-1.032413793;9.98;180.6241529
-1.032413793;9.291724138;161.3507362
-1.032413793;8.603448276;143.0871831
-1.032413793;7.915172414;125.8334934
-1.032413793;7.226896552;109.5896672
-1.032413793;6.53862069;94.35570444
-1.032413793;5.850344828;80.13160521
-1.032413793;5.162068966;66.91736946
-1.032413793;4.473793103;54.71299719
-1.032413793;3.785517241;43.51848841
-1.032413793;3.097241379;33.33384313
-1.032413793;2.408965517;24.15906133
-1.032413793;1.720689655;15.99414302
-1.032413793;1.032413793;8.839088199
-1.032413793;0.344137931;2.693896861
-1.032413793;-0.344137931;-2.44143099
-1.032413793;-1.032413793;-6.566895354
-1.032413793;-1.720689655;-9.682496231
-1.032413793;-2.408965517;-11.78823362
-1.032413793;-3.097241379;-12.88410753
-1.032413793;-3.785517241;-12.97011794
-1.032413793;-4.473793103;-12.04626488
-1.032413793;-5.162068965;-10.11254832
-1.032413793;-5.850344828;-7.168968273
-1.032413793;-6.53862069;-3.215524743
-1.032413793;-7.226896552;1.747782274
-1.032413793;-7.915172414;7.720952778
-1.032413793;-8.603448276;14.70398677
-1.032413793;-9.291724138;22.69688424
-1.032413793;-9.98;31.69964521
-0.344137931;9.98;20.06935032
-0.344137931;9.291724138;17.92785958
-0.344137931;8.603448276;15.89857589
-0.344137931;7.915172414;13.98149926
-0.344137931;7.226896552;12.17662968
-0.344137931;6.53862069;10.48396716
-0.344137931;5.850344828;8.90351169
-0.344137931;5.162068966;7.435263273
-0.344137931;4.473793103;6.07922191
-0.344137931;3.785517241;4.835387602
-0.344137931;3.097241379;3.703760348
-0.344137931;2.408965517;2.684340148
-0.344137931;1.720689655;1.777127003
-0.344137931;1.032413793;0.982120911
-0.344137931;0.344137931;0.299321873
-0.344137931;-0.344137931;-0.27127011
-0.344137931;-1.032413793;-0.729655039
-0.344137931;-1.720689655;-1.075832915
-0.344137931;-2.408965517;-1.309803736
-0.344137931;-3.097241379;-1.431567503
-0.344137931;-3.785517241;-1.441124216
-0.344137931;-4.473793103;-1.338473875
-0.344137931;-5.162068965;-1.12361648
-0.344137931;-5.850344828;-0.79655203
-0.344137931;-6.53862069;-0.357280527
-0.344137931;-7.226896552;0.19419803
-0.344137931;-7.915172414;0.857883642
-0.344137931;-8.603448276;1.633776308
-0.344137931;-9.291724138;2.521876027
-0.344137931;-9.98;3.522182801
0.344137931;9.98;20.06935032
0.344137931;9.291724138;17.92785958
0.344137931;8.603448276;15.89857589
0.344137931;7.915172414;13.98149926
0.344137931;7.226896552;12.17662968
0.344137931;6.53862069;10.48396716
0.344137931;5.850344828;8.90351169
0.344137931;5.162068966;7.435263273
0.344137931;4.473793103;6.07922191
0.344137931;3.785517241;4.835387602
0.344137931;3.097241379;3.703760348
0.344137931;2.408965517;2.684340148
0.344137931;1.720689655;1.777127003
0.344137931;1.032413793;0.982120911
0.344137931;0.344137931;0.299321873
0.344137931;-0.344137931;-0.27127011
0.344137931;-1.032413793;-0.729655039
0.344137931;-1.720689655;-1.075832915
0.344137931;-2.408965517;-1.309803736
0.344137931;-3.097241379;-1.431567503
0.344137931;-3.785517241;-1.441124216
0.344137931;-4.473793103;-1.338473875
0.344137931;-5.162068965;-1.12361648
0.344137931;-5.850344828;-0.79655203
0.344137931;-6.53862069;-0.357280527
0.344137931;-7.226896552;0.19419803
0.344137931;-7.915172414;0.857883642
0.344137931;-8.603448276;1.633776308
0.344137931;-9.291724138;2.521876027
0.344137931;-9.98;3.522182801
1.032413793;9.98;180.6241529
1.032413793;9.291724138;161.3507362
1.032413793;8.603448276;143.0871831
1.032413793;7.915172414;125.8334934
1.032413793;7.226896552;109.5896672
1.032413793;6.53862069;94.35570444
1.032413793;5.850344828;80.13160521
1.032413793;5.162068966;66.91736946
1.032413793;4.473793103;54.71299719
1.032413793;3.785517241;43.51848841
1.032413793;3.097241379;33.33384313
1.032413793;2.408965517;24.15906133
1.032413793;1.720689655;15.99414302
1.032413793;1.032413793;8.839088199
1.032413793;0.344137931;2.693896861
1.032413793;-0.344137931;-2.44143099
1.032413793;-1.032413793;-6.566895354
1.032413793;-1.720689655;-9.682496231
1.032413793;-2.408965517;-11.78823362
1.032413793;-3.097241379;-12.88410753
1.032413793;-3.785517241;-12.97011794
1.032413793;-4.473793103;-12.04626488
1.032413793;-5.162068965;-10.11254832
1.032413793;-5.850344828;-7.168968273
1.032413793;-6.53862069;-3.215524743
1.032413793;-7.226896552;1.747782274
1.032413793;-7.915172414;7.720952778
1.032413793;-8.603448276;14.70398677
1.032413793;-9.291724138;22.69688424
1.032413793;-9.98;31.69964521
1.720689655;9.98;501.733758
1.720689655;9.291724138;448.1964895
1.720689655;8.603448276;397.4643974
1.720689655;7.915172414;349.5374816
1.720689655;7.226896552;304.4157421
1.720689655;6.53862069;262.099179
1.720689655;5.850344828;222.5877922
1.720689655;5.162068966;185.8815818
1.720689655;4.473793103;151.9805477
1.720689655;3.785517241;120.88469
1.720689655;3.097241379;92.5940087
1.720689655;2.408965517;67.1085037
1.720689655;1.720689655;44.42817506
1.720689655;1.032413793;24.55302277
1.720689655;0.344137931;7.483046837
1.720689655;-0.344137931;-6.781752749
1.720689655;-1.032413793;-18.24137598
1.720689655;-1.720689655;-26.89582287
1.720689655;-2.408965517;-32.7450934
1.720689655;-3.097241379;-35.78918757
1.720689655;-3.785517241;-36.0281054
1.720689655;-4.473793103;-33.46184688
1.720689655;-5.162068965;-28.090412
1.720689655;-5.850344828;-19.91380076
1.720689655;-6.53862069;-8.932013174
1.720689655;-7.226896552;4.854950762
1.720689655;-7.915172414;21.44709105
1.720689655;-8.603448276;40.84440769
1.720689655;-9.291724138;63.04690068
1.720689655;-9.98;88.05457002
2.408965517;9.98;983.3981658
2.408965517;9.291724138;878.4651195
2.408965517;8.603448276;779.0302189
2.408965517;7.915172414;685.0934639
2.408965517;7.226896552;596.6548545
2.408965517;6.53862069;513.7143908
2.408965517;5.850344828;436.2720728
2.408965517;5.162068966;364.3279004
2.408965517;4.473793103;297.8818736
2.408965517;3.785517241;236.9339925
2.408965517;3.097241379;181.484257
2.408965517;2.408965517;131.5326673
2.408965517;1.720689655;87.07922312
2.408965517;1.032413793;48.12392464
2.408965517;0.344137931;14.6667718
2.408965517;-0.344137931;-13.29223539
2.408965517;-1.032413793;-35.75309693
2.408965517;-1.720689655;-52.71581282
2.408965517;-2.408965517;-64.18038306
2.408965517;-3.097241379;-70.14680765
2.408965517;-3.785517241;-70.61508659
2.408965517;-4.473793103;-65.58521988
2.408965517;-5.162068965;-55.05720752
2.408965517;-5.850344828;-39.03104949
2.408965517;-6.53862069;-17.50674582
2.408965517;-7.226896552;9.515703494
2.408965517;-7.915172414;42.03629846
2.408965517;-8.603448276;80.05503907
2.408965517;-9.291724138;123.5719253
2.408965517;-9.98;172.5869572
3.097241379;9.98;1625.617376
3.097241379;9.291724138;1452.156626
3.097241379;8.603448276;1287.784647
3.097241379;7.915172414;1132.50144
3.097241379;7.226896552;986.3070044
3.097241379;6.53862069;849.2013399
3.097241379;5.850344828;721.1844469
3.097241379;5.162068966;602.2563252
3.097241379;4.473793103;492.4169747
3.097241379;3.785517241;391.6663957
3.097241379;3.097241379;300.0045882
3.097241379;2.408965517;217.431552
3.097241379;1.720689655;143.9472872
3.097241379;1.032413793;79.55179379
3.097241379;0.344137931;24.24507175
3.097241379;-0.344137931;-21.97287891
3.097241379;-1.032413793;-59.10205818
3.097241379;-1.720689655;-87.14246608
3.097241379;-2.408965517;-106.0941026
3.097241379;-3.097241379;-115.9569677
3.097241379;-3.785517241;-116.7310615
3.097241379;-4.473793103;-108.4163839
3.097241379;-5.162068965;-91.01293488
3.097241379;-5.850344828;-64.52071446
3.097241379;-6.53862069;-28.93972268
3.097241379;-7.226896552;15.73004047
3.097241379;-7.915172414;69.488575
3.097241379;-8.603448276;132.3358809
3.097241379;-9.291724138;204.2719582
3.097241379;-9.98;285.2968069
3.785517241;9.98;2428.391389
3.785517241;9.291724138;2169.271009
3.785517241;8.603448276;1923.727683
3.785517241;7.915172414;1691.761411
3.785517241;7.226896552;1473.372192
3.785517241;6.53862069;1268.560026
3.785517241;5.850344828;1077.324914
3.785517241;5.162068966;899.6668561
3.785517241;4.473793103;735.585851
3.785517241;3.785517241;585.0818998
3.785517241;3.097241379;448.1550021
3.785517241;2.408965517;324.8051579
3.785517241;1.720689655;215.0323673
3.785517241;1.032413793;118.8366302
3.785517241;0.344137931;36.21794669
3.785517241;-0.344137931;-32.8236833
3.785517241;-1.032413793;-88.28825976
3.785517241;-1.720689655;-130.1757827
3.785517241;-2.408965517;-158.486252
3.785517241;-3.097241379;-173.2196679
3.785517241;-3.785517241;-174.3760301
3.785517241;-4.473793103;-161.9553389
3.785517241;-5.162068965;-135.9575941
3.785517241;-5.850344828;-96.38279567
3.785517241;-6.53862069;-43.23094376
3.785517241;-7.226896552;23.49796169
3.785517241;-7.915172414;103.8039207
3.785517241;-8.603448276;197.6869332
3.785517241;-9.291724138;305.1469993
3.785517241;-9.98;426.1841189
4.473793103;9.98;3391.720204
4.473793103;9.291724138;3029.808269
4.473793103;8.603448276;2686.859326
4.473793103;7.915172414;2362.873375
4.473793103;7.226896552;2057.850417
4.473793103;6.53862069;1771.79045
4.473793103;5.850344828;1504.693476
4.473793103;5.162068966;1256.559493
4.473793103;4.473793103;1027.388503
4.473793103;3.785517241;817.1805047
4.473793103;3.097241379;625.9354988
4.473793103;2.408965517;453.653485
4.473793103;1.720689655;300.3344634
4.473793103;1.032413793;165.978434
4.473793103;0.344137931;50.58539662
4.473793103;-0.344137931;-45.84464858
4.473793103;-1.032413793;-123.3117016
4.473793103;-1.720689655;-181.8157626
4.473793103;-2.408965517;-221.3568314
4.473793103;-3.097241379;-241.934908
4.473793103;-3.785517241;-243.5499925
4.473793103;-4.473793103;-226.2020849
4.473793103;-5.162068965;-189.8911851
4.473793103;-5.850344828;-134.6172931
4.473793103;-6.53862069;-60.38040905
4.473793103;-7.226896552;32.81946715
4.473793103;-7.915172414;144.9823355
4.473793103;-8.603448276;276.108196
4.473793103;-9.291724138;426.1970486
4.473793103;-9.98;595.2488934
5.162068966;9.98;4515.603824
5.162068966;9.291724138;4033.768407
5.162068966;8.603448276;3577.179578
5.162068966;7.915172414;3145.837335
5.162068966;7.226896552;2739.74168
5.162068966;6.53862069;2358.892612
5.162068966;5.850344828;2003.290131
5.162068966;5.162068966;1672.934237
5.162068966;4.473793103;1367.82493
5.162068966;3.785517241;1087.962211
5.162068966;3.097241379;833.3460786
5.162068966;2.408965517;603.9765336
5.162068966;1.720689655;399.8535757
5.162068966;1.032413793;220.9772051
5.162068966;0.344137931;67.34742156
5.162068966;-0.344137931;-61.03577476
5.162068966;-1.032413793;-164.1723839
5.162068966;-1.720689655;-242.0624059
5.162068966;-2.408965517;-294.7058407
5.162068966;-3.097241379;-322.1026883
5.162068966;-3.785517241;-324.2529487
5.162068966;-4.473793103;-301.156622
5.162068966;-5.162068965;-252.8137081
5.162068966;-5.850344828;-179.2242069
5.162068966;-6.53862069;-80.38811859
5.162068966;-7.226896552;43.69455688
5.162068966;-7.915172414;193.0238195
5.162068966;-8.603448276;367.5996693
5.162068966;-9.291724138;567.4221063
5.162068966;-9.98;792.4911305
5.850344828;9.98;5800.042245
5.850344828;9.291724138;5181.151421
5.850344828;8.603448276;4594.688435
5.850344828;7.915172414;4040.653288
5.850344828;7.226896552;3519.04598
5.850344828;6.53862069;3029.86651
5.850344828;5.850344828;2573.114879
5.850344828;5.162068966;2148.791087
5.850344828;4.473793103;1756.895132
5.850344828;3.785517241;1397.427017
5.850344828;3.097241379;1070.386741
5.850344828;2.408965517;775.7743031
5.850344828;1.720689655;513.5897039
5.850344828;1.032413793;283.8329434
5.850344828;0.344137931;86.50402146
5.850344828;-0.344137931;-78.3970618
5.850344828;-1.032413793;-210.8703064
5.850344828;-1.720689655;-310.9157124
5.850344828;-2.408965517;-378.5332798
5.850344828;-3.097241379;-413.7230085
5.850344828;-3.785517241;-416.4848986
5.850344828;-4.473793103;-386.81895
5.850344828;-5.162068965;-324.7251628
5.850344828;-5.850344828;-230.2035368
5.850344828;-6.53862069;-103.2540723
5.850344828;-7.226896552;56.12323083
5.850344828;-7.915172414;247.9283726
5.850344828;-8.603448276;472.161353
5.850344828;-9.291724138;728.8221721
5.850344828;-9.98;1017.91083
6.53862069;9.98;7245.035468
6.53862069;9.291724138;6471.957311
6.53862069;8.603448276;5739.3859
6.53862069;7.915172414;5047.321235
6.53862069;7.226896552;4395.763317
6.53862069;6.53862069;3784.712146
6.53862069;5.850344828;3214.167721
6.53862069;5.162068966;2684.130043
6.53862069;4.473793103;2194.59911
6.53862069;3.785517241;1745.574925
6.53862069;3.097241379;1337.057486
6.53862069;2.408965517;969.0467938
6.53862069;1.720689655;641.5428481
6.53862069;1.032413793;354.545649
6.53862069;0.344137931;108.0551964
6.53862069;-0.344137931;-97.92850972
6.53862069;-1.032413793;-263.4054693
6.53862069;-1.720689655;-388.3756823
6.53862069;-2.408965517;-472.8391488
6.53862069;-3.097241379;-516.7958687
6.53862069;-3.785517241;-520.2458422
6.53862069;-4.473793103;-483.189069
6.53862069;-5.162068965;-405.6255494
6.53862069;-5.850344828;-287.555283
6.53862069;-6.53862069;-128.9782703
6.53862069;-7.226896552;70.10548903
6.53862069;-7.915172414;309.6959949
6.53862069;-8.603448276;589.7932472
6.53862069;-9.291724138;910.3972461
6.53862069;-9.98;1271.507992
7.226896552;9.98;8850.583494
7.226896552;9.291724138;7906.186078
7.226896552;8.603448276;7011.271972
7.226896552;7.915172414;6165.841176
7.226896552;7.226896552;5369.893692
7.226896552;6.53862069;4623.429519
7.226896552;5.850344828;3926.448656
7.226896552;5.162068966;3278.951105
7.226896552;4.473793103;2680.936863
7.226896552;3.785517241;2132.405933
7.226896552;3.097241379;1633.358314
7.226896552;2.408965517;1183.794006
7.226896552;1.720689655;783.7130083
7.226896552;1.032413793;433.1153219
7.226896552;0.344137931;132.0009462
7.226896552;-0.344137931;-119.6301185
7.226896552;-1.032413793;-321.7778724
7.226896552;-1.720689655;-474.4423155
7.226896552;-2.408965517;-577.6234477
7.226896552;-3.097241379;-631.321269
7.226896552;-3.785517241;-635.5357795
7.226896552;-4.473793103;-590.2669791
7.226896552;-5.162068965;-495.5148678
7.226896552;-5.850344828;-351.2794455
7.226896552;-6.53862069;-157.5607124
7.226896552;-7.226896552;85.64133147
7.226896552;-7.915172414;378.3266862
7.226896552;-8.603448276;720.4953518
7.226896552;-9.291724138;1112.147328
7.226896552;-9.98;1553.282616
7.915172414;9.98;10616.68632
7.915172414;9.291724138;9483.837721
7.915172414;8.603448276;8410.346651
7.915172414;7.915172414;7396.213112
7.915172414;7.226896552;6441.437105
7.915172414;6.53862069;5546.018629
7.915172414;5.850344828;4709.957685
7.915172414;5.162068966;3933.254273
7.915172414;4.473793103;3215.908391
7.915172414;3.785517241;2557.920042
7.915172414;3.097241379;1959.289225
7.915172414;2.408965517;1420.015939
7.915172414;1.720689655;940.1001846
7.915172414;1.032413793;519.541962
7.915172414;0.344137931;158.3412711
7.915172414;-0.344137931;-143.5018882
7.915172414;-1.032413793;-385.9875159
7.915172414;-1.720689655;-569.115612
7.915172414;-2.408965517;-692.8861764
7.915172414;-3.097241379;-757.2992093
7.915172414;-3.785517241;-762.3547105
7.915172414;-4.473793103;-708.0526801
7.915172414;-5.162068965;-594.3931181
7.915172414;-5.850344828;-421.3760241
7.915172414;-6.53862069;-189.0013988
7.915172414;-7.226896552;102.7307582
7.915172414;-7.915172414;453.8204467
7.915172414;-8.603448276;864.2676669
7.915172414;-9.291724138;1334.072419
7.915172414;-9.98;1863.234702
8.603448276;9.98;12543.34395
8.603448276;9.291724138;11204.91224
8.603448276;8.603448276;9936.609937
8.603448276;7.915172414;8738.437041
8.603448276;7.226896552;7610.393554
8.603448276;6.53862069;6552.479476
8.603448276;5.850344828;5564.694807
8.603448276;5.162068966;4647.039547
8.603448276;4.473793103;3799.513694
8.603448276;3.785517241;3022.117252
8.603448276;3.097241379;2314.850218
8.603448276;2.408965517;1677.712593
8.603448276;1.720689655;1110.704377
8.603448276;1.032413793;613.8255695
8.603448276;0.344137931;187.076171
8.603448276;-0.344137931;-169.5438188
8.603448276;-1.032413793;-456.0343997
8.603448276;-1.720689655;-672.3955718
8.603448276;-2.408965517;-818.6273351
8.603448276;-3.097241379;-894.7296896
8.603448276;-3.785517241;-900.7026352
8.603448276;-4.473793103;-836.5461721
8.603448276;-5.162068965;-702.2603002
8.603448276;-5.850344828;-497.8450191
8.603448276;-6.53862069;-223.3003294
8.603448276;-7.226896552;121.3737691
8.603448276;-7.915172414;536.1772764
8.603448276;-8.603448276;1021.110192
8.603448276;-9.291724138;1576.172517
8.603448276;-9.98;2201.364251
9.291724138;9.98;14630.55639
9.291724138;9.291724138;13069.40964
9.291724138;8.603448276;11590.06183
9.291724138;7.915172414;10192.51296
9.291724138;7.226896552;8876.763042
9.291724138;6.53862069;7642.812061
9.291724138;5.850344828;6490.660023
9.291724138;5.162068966;5420.306928
9.291724138;4.473793103;4431.752773
9.291724138;3.785517241;3524.997562
9.291724138;3.097241379;2700.041294
9.291724138;2.408965517;1956.883968
9.291724138;1.720689655;1295.525585
9.291724138;1.032413793;715.9661443
9.291724138;0.344137931;218.2056458
9.291724138;-0.344137931;-197.7559102
9.291724138;-1.032413793;-531.9185238
9.291724138;-1.720689655;-784.2821949
9.291724138;-2.408965517;-954.8469236
9.291724138;-3.097241379;-1043.61271
9.291724138;-3.785517241;-1050.579554
9.291724138;-4.473793103;-975.7474551
9.291724138;-5.162068965;-819.1164141
9.291724138;-5.850344828;-580.6864302
9.291724138;-6.53862069;-260.4575042
9.291724138;-7.226896552;141.5703643
9.291724138;-7.915172414;625.3971751
9.291724138;-8.603448276;1191.022928
9.291724138;-9.291724138;1838.447624
9.291724138;-9.98;2567.671262
9.98;9.98;16878.32362
9.98;9.291724138;15077.32991
9.98;8.603448276;13370.70233
9.98;7.915172414;11758.44088
9.98;7.226896552;10240.54557
9.98;6.53862069;8817.016383
9.98;5.850344828;7487.853332
9.98;5.162068966;6253.056414
9.98;4.473793103;5112.625627
9.98;3.785517241;4066.560974
9.98;3.097241379;3114.862453
9.98;2.408965517;2257.530065
9.98;1.720689655;1494.563809
9.98;1.032413793;825.9636863
9.98;0.344137931;251.7296956
9.98;-0.344137931;-228.1381625
9.98;-1.032413793;-613.6398882
9.98;-1.720689655;-904.7754814
9.98;-2.408965517;-1101.544942
9.98;-3.097241379;-1203.94827
9.98;-3.785517241;-1211.985466
9.98;-4.473793103;-1125.656529
9.98;-5.162068965;-944.9614599
9.98;-5.850344828;-669.9002576
9.98;-6.53862069;-300.4729232
9.98;-7.226896552;163.3205437
9.98;-7.915172414;721.4801431
9.98;-8.603448276;1374.005875
9.98;-9.291724138;2120.897739
9.98;-9.98;2962.155736
